{
  "configVersion": 2,
  "packages": [
    {
      "name": "async",
      "rootUri": "file:///E:/flutter%20sdk/flutter/.pub-cache/hosted/pub.dartlang.org/async-2.8.1",
      "packageUri": "lib/",
      "languageVersion": "2.12"
    },
    {
      "name": "boolean_selector",
      "rootUri": "file:///E:/flutter%20sdk/flutter/.pub-cache/hosted/pub.dartlang.org/boolean_selector-2.1.0",
      "packageUri": "lib/",
      "languageVersion": "2.12"
    },
    {
      "name": "characters",
      "rootUri": "file:///E:/flutter%20sdk/flutter/.pub-cache/hosted/pub.dartlang.org/characters-1.1.0",
      "packageUri": "lib/",
      "languageVersion": "2.12"
    },
    {
      "name": "charcode",
      "rootUri": "file:///E:/flutter%20sdk/flutter/.pub-cache/hosted/pub.dartlang.org/charcode-1.3.1",
      "packageUri": "lib/",
      "languageVersion": "2.12"
    },
    {
      "name": "clock",
      "rootUri": "file:///E:/flutter%20sdk/flutter/.pub-cache/hosted/pub.dartlang.org/clock-1.1.0",
      "packageUri": "lib/",
      "languageVersion": "2.12"
    },
    {
      "name": "cloud_firestore",
      "rootUri": "file:///E:/flutter%20sdk/flutter/.pub-cache/hosted/pub.dartlang.org/cloud_firestore-0.14.3+1",
      "packageUri": "lib/",
      "languageVersion": "2.1"
    },
    {
      "name": "cloud_firestore_platform_interface",
      "rootUri": "file:///E:/flutter%20sdk/flutter/.pub-cache/hosted/pub.dartlang.org/cloud_firestore_platform_interface-2.2.0",
      "packageUri": "lib/",
      "languageVersion": "2.0"
    },
    {
      "name": "cloud_firestore_web",
      "rootUri": "file:///E:/flutter%20sdk/flutter/.pub-cache/hosted/pub.dartlang.org/cloud_firestore_web-0.2.1+1",
      "packageUri": "lib/",
      "languageVersion": "2.1"
    },
    {
      "name": "collection",
      "rootUri": "file:///E:/flutter%20sdk/flutter/.pub-cache/hosted/pub.dartlang.org/collection-1.15.0",
      "packageUri": "lib/",
      "languageVersion": "2.12"
    },
    {
      "name": "convert",
      "rootUri": "file:///E:/flutter%20sdk/flutter/.pub-cache/hosted/pub.dartlang.org/convert-2.1.1",
      "packageUri": "lib/",
      "languageVersion": "1.17"
    },
    {
      "name": "crypto",
      "rootUri": "file:///E:/flutter%20sdk/flutter/.pub-cache/hosted/pub.dartlang.org/crypto-2.1.3",
      "packageUri": "lib/",
      "languageVersion": "2.1"
    },
    {
      "name": "cupertino_icons",
      "rootUri": "file:///E:/flutter%20sdk/flutter/.pub-cache/hosted/pub.dartlang.org/cupertino_icons-0.1.3",
      "packageUri": "lib/",
      "languageVersion": "2.0"
    },
    {
      "name": "fake_async",
      "rootUri": "file:///E:/flutter%20sdk/flutter/.pub-cache/hosted/pub.dartlang.org/fake_async-1.2.0",
      "packageUri": "lib/",
      "languageVersion": "2.12"
    },
    {
      "name": "firebase_core",
      "rootUri": "file:///E:/flutter%20sdk/flutter/.pub-cache/hosted/pub.dartlang.org/firebase_core-0.5.2+1",
      "packageUri": "lib/",
      "languageVersion": "2.1"
    },
    {
      "name": "firebase_core_platform_interface",
      "rootUri": "file:///E:/flutter%20sdk/flutter/.pub-cache/hosted/pub.dartlang.org/firebase_core_platform_interface-2.1.0",
      "packageUri": "lib/",
      "languageVersion": "2.1"
    },
    {
      "name": "firebase_core_web",
      "rootUri": "file:///E:/flutter%20sdk/flutter/.pub-cache/hosted/pub.dartlang.org/firebase_core_web-0.2.1+1",
      "packageUri": "lib/",
      "languageVersion": "2.1"
    },
    {
      "name": "flutter",
      "rootUri": "file:///E:/flutter%20sdk/flutter/packages/flutter",
      "packageUri": "lib/",
      "languageVersion": "2.12"
    },
    {
      "name": "flutter_test",
      "rootUri": "file:///E:/flutter%20sdk/flutter/packages/flutter_test",
      "packageUri": "lib/",
      "languageVersion": "2.12"
    },
    {
      "name": "flutter_web_plugins",
      "rootUri": "file:///E:/flutter%20sdk/flutter/packages/flutter_web_plugins",
      "packageUri": "lib/",
      "languageVersion": "2.12"
    },
    {
      "name": "http_parser",
      "rootUri": "file:///E:/flutter%20sdk/flutter/.pub-cache/hosted/pub.dartlang.org/http_parser-3.1.4",
      "packageUri": "lib/",
      "languageVersion": "2.3"
    },
    {
      "name": "js",
      "rootUri": "file:///E:/flutter%20sdk/flutter/.pub-cache/hosted/pub.dartlang.org/js-0.6.3",
      "packageUri": "lib/",
      "languageVersion": "2.12"
    },
    {
      "name": "matcher",
      "rootUri": "file:///E:/flutter%20sdk/flutter/.pub-cache/hosted/pub.dartlang.org/matcher-0.12.10",
      "packageUri": "lib/",
      "languageVersion": "2.12"
    },
    {
      "name": "meta",
      "rootUri": "file:///E:/flutter%20sdk/flutter/.pub-cache/hosted/pub.dartlang.org/meta-1.7.0",
      "packageUri": "lib/",
      "languageVersion": "2.12"
    },
    {
      "name": "nested",
      "rootUri": "file:///E:/flutter%20sdk/flutter/.pub-cache/hosted/pub.dartlang.org/nested-0.0.4",
      "packageUri": "lib/",
      "languageVersion": "2.2"
    },
    {
      "name": "path",
      "rootUri": "file:///E:/flutter%20sdk/flutter/.pub-cache/hosted/pub.dartlang.org/path-1.8.0",
      "packageUri": "lib/",
      "languageVersion": "2.12"
    },
    {
      "name": "plugin_platform_interface",
      "rootUri": "file:///E:/flutter%20sdk/flutter/.pub-cache/hosted/pub.dartlang.org/plugin_platform_interface-1.0.2",
      "packageUri": "lib/",
      "languageVersion": "2.1"
    },
    {
      "name": "provider",
      "rootUri": "file:///E:/flutter%20sdk/flutter/.pub-cache/hosted/pub.dartlang.org/provider-4.3.2+2",
      "packageUri": "lib/",
      "languageVersion": "2.7"
    },
    {
      "name": "quiver",
      "rootUri": "file:///E:/flutter%20sdk/flutter/.pub-cache/hosted/pub.dartlang.org/quiver-2.0.5",
      "packageUri": "lib/",
      "languageVersion": "2.0"
    },
    {
      "name": "sky_engine",
      "rootUri": "file:///E:/flutter%20sdk/flutter/bin/cache/pkg/sky_engine",
      "packageUri": "lib/",
      "languageVersion": "2.12"
    },
    {
      "name": "source_span",
      "rootUri": "file:///E:/flutter%20sdk/flutter/.pub-cache/hosted/pub.dartlang.org/source_span-1.8.1",
      "packageUri": "lib/",
      "languageVersion": "2.12"
    },
    {
      "name": "stack_trace",
      "rootUri": "file:///E:/flutter%20sdk/flutter/.pub-cache/hosted/pub.dartlang.org/stack_trace-1.10.0",
      "packageUri": "lib/",
      "languageVersion": "2.12"
    },
    {
      "name": "stream_channel",
      "rootUri": "file:///E:/flutter%20sdk/flutter/.pub-cache/hosted/pub.dartlang.org/stream_channel-2.1.0",
      "packageUri": "lib/",
      "languageVersion": "2.12"
    },
    {
      "name": "string_scanner",
      "rootUri": "file:///E:/flutter%20sdk/flutter/.pub-cache/hosted/pub.dartlang.org/string_scanner-1.1.0",
      "packageUri": "lib/",
      "languageVersion": "2.12"
    },
    {
      "name": "term_glyph",
      "rootUri": "file:///E:/flutter%20sdk/flutter/.pub-cache/hosted/pub.dartlang.org/term_glyph-1.2.0",
      "packageUri": "lib/",
      "languageVersion": "2.12"
    },
    {
      "name": "test_api",
      "rootUri": "file:///E:/flutter%20sdk/flutter/.pub-cache/hosted/pub.dartlang.org/test_api-0.4.2",
      "packageUri": "lib/",
      "languageVersion": "2.12"
    },
    {
      "name": "typed_data",
      "rootUri": "file:///E:/flutter%20sdk/flutter/.pub-cache/hosted/pub.dartlang.org/typed_data-1.3.0",
      "packageUri": "lib/",
      "languageVersion": "2.12"
    },
    {
      "name": "uuid",
      "rootUri": "file:///E:/flutter%20sdk/flutter/.pub-cache/hosted/pub.dartlang.org/uuid-2.2.2",
      "packageUri": "lib/",
      "languageVersion": "2.2"
    },
    {
      "name": "vector_math",
      "rootUri": "file:///E:/flutter%20sdk/flutter/.pub-cache/hosted/pub.dartlang.org/vector_math-2.1.0",
      "packageUri": "lib/",
      "languageVersion": "2.12"
    },
    {
      "name": "firestore_crud",
      "rootUri": "../",
      "packageUri": "lib/",
      "languageVersion": "2.1"
    }
  ],
  "generated": "2021-12-07T12:31:21.569855Z",
  "generator": "pub",
  "generatorVersion": "2.14.3"
}
